29

22 15
2
r 16 5 s
f 21 3 w
6 2

41 13
5
t 15 5 w
h 23 3 n
t 7 1 w
r 12 5 e
h 19 7 s
6 8

26 38
3
t 8 22 n
f 15 11 s
f 15 0 s
4 5

12 29
2
t 9 4 n
r 11 28 w
10 7

36 50
5
t 20 0 s
r 13 28 w
f 23 32 e
h 16 9 e
f 0 25 w
2 6

11 9
2
f 10 0 n
r 4 6 n
6 5

34 29
5
t 2 7 n
f 4 2 e
f 18 5 s
f 26 28 e
r 19 22 n
8 9

5 39
4
r 0 35 n
h 3 23 s
r 1 12 w
r 2 5 n
5 5

27 46
5
t 9 22 e
t 2 2 s
h 22 27 s
t 9 43 s
h 10 40 s
4 8

25 20
1
t 13 1 s
6 1

38 14
1
f 14 10 w
7 7

33 46
3
t 6 33 s
h 10 29 w
t 24 20 n
3 10

49 46
5
r 33 9 s
t 0 12 n
f 0 16 w
h 17 15 e
h 15 45 w
7 6

28 27
4
t 12 12 e
r 6 20 e
h 14 24 w
t 15 2 s
4 4

22 29
4
r 13 16 n
t 2 13 e
f 4 3 w
t 9 6 n
10 5

43 13
1
r 42 5 w
2 7

28 11
5
h 0 3 s
t 9 10 w
h 0 10 e
t 17 10 s
t 6 8 s
5 10

10 36
2
f 8 33 e
h 8 8 e
5 5

13 42
2
h 10 17 s
f 6 20 s
8 4

21 14
4
r 0 8 s
r 3 2 s
t 14 13 s
f 18 3 w
3 4

39 44
1
r 34 16 n
2 9

7 24
5
r 1 2 e
f 1 14 e
f 6 8 n
h 2 7 s
h 0 19 n
5 3

28 25
1
t 26 8 n
9 7

33 3
2
f 29 1 w
t 24 0 w
8 2

31 16
1
f 13 15 w
1 9

37 21
5
r 17 14 e
t 5 10 s
r 35 15 e
f 1 12 n
f 4 17 w
4 4

18 8
3
f 13 2 n
r 3 3 n
h 16 4 e
9 8

5 46
4
r 4 34 n
h 4 20 w
r 1 27 e
t 2 40 e
5 3

20 47
3
h 10 19 n
h 19 32 s
t 15 15 s
3 7
