20

23 25
7
f 3 10 w
h 22 21 n
r 21 11 s
f 9 23 n
t 8 2 e
f 19 8 s
h 0 12 n
199 8

9 5
3
r 8 1 w
h 1 0 s
t 8 2 w
158 7

7 6
8
r 1 3 e
r 0 5 w
r 0 2 n
f 5 0 n
t 4 1 w
h 2 5 w
h 0 4 w
t 0 5 w
158 7

22 23
19
h 20 20 w
h 14 5 s
f 1 18 e
t 0 2 s
r 21 4 e
f 7 9 n
t 7 19 s
r 7 14 n
h 20 0 e
t 11 7 w
r 9 0 e
t 16 1 w
f 11 9 w
t 11 11 w
r 18 14 n
t 20 12 n
r 0 17 w
t 16 12 n
r 13 18 n
154 7

15 22
9
h 10 9 s
r 2 4 n
t 14 14 n
t 1 6 e
h 13 10 n
r 12 6 n
r 8 14 e
h 12 6 n
r 11 11 w
96 4

16 11
6
h 13 3 s
h 3 0 e
f 4 3 n
r 11 7 e
r 0 10 s
t 8 4 e
136 6

17 6
18
r 8 5 n
t 15 0 w
t 9 4 w
h 11 5 s
f 6 1 s
r 9 0 w
f 8 2 e
r 16 0 n
r 11 4 n
f 14 4 w
t 6 1 s
t 10 1 n
h 0 3 w
f 10 2 e
h 11 4 w
h 12 0 w
f 0 4 n
h 13 2 n
116 5

25 11
12
r 8 3 s
f 21 9 w
t 13 3 w
f 16 0 s
h 1 4 e
t 16 10 s
r 19 3 n
r 5 7 w
f 12 8 w
r 4 7 e
h 3 8 w
t 17 10 s
7 1

9 9
1
h 7 1 s
128 6

5 5
15
r 3 1 n
t 1 3 w
t 0 1 w
h 3 2 w
h 4 1 s
f 4 3 e
t 2 4 s
t 4 1 e
h 1 2 n
t 0 3 e
h 1 2 n
t 2 3 e
r 2 4 s
f 0 4 e
t 4 2 e
17 1

9 23
8
f 0 11 w
f 4 21 w
t 3 11 e
h 2 11 e
t 2 13 s
r 5 22 w
r 1 9 w
t 8 5 n
157 7

25 23
15
h 4 3 e
t 3 3 e
h 22 18 e
f 18 9 n
h 23 21 e
h 14 0 e
r 21 1 s
r 17 19 w
f 24 14 n
h 1 9 e
r 24 21 n
r 13 15 e
t 0 21 n
f 4 14 n
r 13 0 s
56 3

14 6
14
h 3 5 w
f 1 2 n
f 13 0 n
f 2 4 s
f 8 3 e
h 13 5 e
f 6 2 n
h 8 3 w
h 12 5 e
t 12 0 n
t 5 1 s
f 0 0 e
r 12 4 s
h 10 0 s
41 2

17 12
10
f 9 1 n
r 7 9 w
r 12 4 n
r 6 9 s
f 6 8 e
f 0 8 w
f 7 8 n
t 11 10 n
t 4 2 e
r 2 0 w
29 2

19 7
4
r 4 4 s
h 17 6 s
r 9 5 w
h 0 2 e
120 5

9 6
6
h 2 0 s
r 0 0 n
t 3 0 s
r 7 2 n
h 4 0 e
f 4 1 s
92 4

25 14
6
r 24 8 s
h 12 7 e
r 11 3 e
h 15 2 n
h 17 6 s
r 3 0 n
31 2

8 8
13
t 5 0 s
h 2 1 s
t 2 3 s
h 6 1 e
t 1 5 n
r 3 4 w
r 4 3 e
r 0 5 w
t 1 7 e
h 5 2 n
r 0 4 e
t 7 1 s
r 5 3 w
182 8

23 23
3
r 14 2 n
t 14 18 n
t 11 16 s
9 1

15 14
5
t 6 8 n
h 5 7 s
t 1 2 s
r 10 11 s
r 4 0 w
190 8
