*** Darwin 14x15 ***
Turn = 0.
  012345678901234
0 ...............
1 ...............
2 .........h.....
3 ..h............
4 ........f.....t
5 ...............
6 ...............
7 .......h.......
8 ...............
9 ...............
0 .....r.........
1 ...............
2 ...............
3 ...............

Turn = 3.
  012345678901234
0 ...............
1 ...............
2 ............h..
3 ...............
4 .......hf.....t
5 ...............
6 ..h............
7 ...............
8 ...............
9 ...............
0 ........r......
1 ...............
2 ...............
3 ...............

*** Darwin 14x7 ***
Turn = 0.
  0123456
0 h......
1 .......
2 .......
3 .......
4 ....f..
5 .......
6 .......
7 .......
8 .......
9 .......
0 .....h.
1 ......r
2 ....r..
3 .t.....

Turn = 6.
  0123456
0 ......h
1 .......
2 .......
3 .......
4 ....f..
5 .......
6 .......
7 .......
8 .....r.
9 .......
0 h......
1 .......
2 .......
3 .t..r..

Turn = 12.
  0123456
0 ......h
1 .......
2 .....r.
3 .......
4 ....f..
5 .......
6 .......
7 .......
8 .......
9 .......
0 h......
1 ..r....
2 .......
3 r......

*** Darwin 6x2 ***
Turn = 0.
  01
0 r.
1 .f
2 t.
3 .t
4 tt
5 rh

Turn = 2.
  01
0 .r
1 .f
2 t.
3 .t
4 tt
5 rr

*** Darwin 11x6 ***
Turn = 0.
  012345
0 ......
1 .....f
2 .r.r..
3 ......
4 t.....
5 .r..f.
6 ..r...
7 .tt...
8 ....f.
9 .r..tt
0 ......

Turn = 5.
  012345
0 ...r..
1 .....f
2 ......
3 ......
4 t....r
5 .....r
6 ..t...
7 .tt.r.
8 ....r.
9 ....tt
0 ....r.

*** Darwin 1x12 ***
Turn = 0.
  012345678901
0 ......rf....

Turn = 7.
  012345678901
0 ..........rr

*** Darwin 6x8 ***
Turn = 0.
  01234567
0 ........
1 ........
2 ..r.....
3 h...r...
4 ........
5 r.....r.

*** Darwin 13x1 ***
Turn = 0.
  0
0 .
1 r
2 t
3 .
4 t
5 .
6 t
7 t
8 t
9 .
0 .
1 h
2 t

*** Darwin 2x3 ***
Turn = 0.
  012
0 tth
1 fff

Turn = 5.
  012
0 ttt
1 ttt

Turn = 10.
  012
0 ttt
1 ttt

*** Darwin 6x8 ***
Turn = 0.
  01234567
0 f.......
1 .f......
2 ..t....r
3 ...f....
4 h......f
5 ........

Turn = 3.
  01234567
0 f.......
1 hf......
2 ..t.r...
3 ...f....
4 .......f
5 ........

Turn = 6.
  01234567
0 f.......
1 hf......
2 ..tt....
3 ...t....
4 .......f
5 ........

Turn = 9.
  01234567
0 f.......
1 hf......
2 ..tt....
3 ...t....
4 .......f
5 ........

*** Darwin 10x1 ***
Turn = 0.
  0
0 .
1 f
2 h
3 .
4 t
5 .
6 t
7 f
8 .
9 f

*** Darwin 12x12 ***
Turn = 0.
  012345678901
0 ............
1 ............
2 ............
3 ............
4 ............
5 ............
6 ............
7 ............
8 ............
9 ..h.........
0 ............
1 ............

Turn = 7.
  012345678901
0 ............
1 ............
2 ............
3 ............
4 ............
5 ............
6 ............
7 ............
8 ............
9 ............
0 ............
1 ..h.........

*** Darwin 9x8 ***
Turn = 0.
  01234567
0 .t......
1 ........
2 .....f..
3 ........
4 .....r..
5 ..f..f..
6 r.r.r.f.
7 ....t...
8 f.t.....

Turn = 3.
  01234567
0 .t......
1 ........
2 .....f..
3 ........
4 ..r.....
5 ..f..f..
6 ...r..f.
7 ..rr....
8 fr..r...

Turn = 6.
  01234567
0 .t......
1 ........
2 .....f..
3 ........
4 r.......
5 ..f..fr.
6 .....r..
7 r.....r.
8 rrr.....

Turn = 9.
  01234567
0 .t......
1 ........
2 .....fr.
3 ........
4 ........
5 r.f..f..
6 rrr....r
7 .......r
8 r.......

Turn = 12.
  01234567
0 .t....r.
1 ........
2 .....f..
3 .r......
4 ..r.....
5 r....f..
6 r.......
7 r...r..r
8 r.......

*** Darwin 13x11 ***
Turn = 0.
  01234567890
0 ...........
1 ...........
2 ...........
3 ...........
4 ...........
5 ...........
6 ...........
7 ...........
8 ....r......
9 ...........
0 ...........
1 ...........
2 ...........

*** Darwin 10x15 ***
Turn = 0.
  012345678901234
0 ..r.......r....
1 ..............h
2 ...............
3 ..h......h.....
4 r..............
5 ......r........
6 ...tt.........t
7 ...............
8 .......fr....h.
9 h..............

*** Darwin 15x4 ***
Turn = 0.
  0123
0 ....
1 ..r.
2 ....
3 r...
4 ..r.
5 ...h
6 ....
7 ....
8 ..r.
9 ....
0 ....
1 ....
2 ....
3 ....
4 ....

Turn = 8.
  0123
0 ....
1 ....
2 ....
3 ....
4 ...r
5 ...h
6 ..r.
7 ....
8 ...r
9 r...
0 ....
1 ....
2 ....
3 ....
4 ....

*** Darwin 12x1 ***
Turn = 0.
  0
0 r
1 .
2 h
3 r
4 h
5 f
6 h
7 .
8 r
9 h
0 .
1 .

*** Darwin 13x15 ***
Turn = 0.
  012345678901234
0 ...............
1 ...............
2 ...............
3 ...............
4 ...............
5 ...............
6 ...............
7 ...............
8 ...............
9 ............h..
0 ...............
1 ...............
2 ...............

Turn = 2.
  012345678901234
0 ...............
1 ...............
2 ...............
3 ...............
4 ...............
5 ...............
6 ...............
7 ...............
8 ...............
9 ..........h....
0 ...............
1 ...............
2 ...............

Turn = 4.
  012345678901234
0 ...............
1 ...............
2 ...............
3 ...............
4 ...............
5 ...............
6 ...............
7 ...............
8 ...............
9 ........h......
0 ...............
1 ...............
2 ...............

Turn = 6.
  012345678901234
0 ...............
1 ...............
2 ...............
3 ...............
4 ...............
5 ...............
6 ...............
7 ...............
8 ...............
9 ......h........
0 ...............
1 ...............
2 ...............

Turn = 8.
  012345678901234
0 ...............
1 ...............
2 ...............
3 ...............
4 ...............
5 ...............
6 ...............
7 ...............
8 ...............
9 ....h..........
0 ...............
1 ...............
2 ...............

Turn = 10.
  012345678901234
0 ...............
1 ...............
2 ...............
3 ...............
4 ...............
5 ...............
6 ...............
7 ...............
8 ...............
9 ..h............
0 ...............
1 ...............
2 ...............

Turn = 12.
  012345678901234
0 ...............
1 ...............
2 ...............
3 ...............
4 ...............
5 ...............
6 ...............
7 ...............
8 ...............
9 h..............
0 ...............
1 ...............
2 ...............

*** Darwin 14x15 ***
Turn = 0.
  012345678901234
0 ...............
1 ...............
2 ...............
3 ...............
4 ...............
5 ..r............
6 ......f........
7 ...............
8 .........t.....
9 ...............
0 ...............
1 .........h.....
2 ...............
3 ......ft.......

*** Darwin 1x4 ***
Turn = 0.
  0123
0 rrh.

Turn = 2.
  0123
0 rrh.

Turn = 4.
  0123
0 rrr.

*** Darwin 6x8 ***
Turn = 0.
  01234567
0 t.......
1 ..f.t...
2 .......h
3 h...h.h.
4 ........
5 .t..tt..

Turn = 9.
  01234567
0 t.....h.
1 t.f.t...
2 ........
3 ........
4 ....t...
5 .t..tt.h

*** Darwin 15x3 ***
Turn = 0.
  012
0 .f.
1 ...
2 ...
3 ..t
4 ..t
5 f..
6 hh.
7 .tt
8 ...
9 ...
0 .tf
1 ...
2 ...
3 .f.
4 ...

Turn = 3.
  012
0 .f.
1 ...
2 ...
3 ..t
4 ..t
5 f..
6 .h.
7 ttt
8 ...
9 ...
0 .tt
1 ...
2 ...
3 .f.
4 ...
